{
  "version": "2.1",
  "settings": {
    "appearanceTools": true,
    "border": {
      "color": true
    },
    "color": {
      "link": true,
      "custom": false,
      "palette": [
        {
          "name": "Light",
          "slug": "light",
          "color": "#ffffff"
        },
        {
          "name": "Middle Blue Green",
          "slug": "middle-blue-green",
          "color": "#9ce2da"
        },
        {
          "name": "Green Sheen",
          "slug": "green-sheen",
          "color": "#7bc1b5"
        },
        {
          "name": "Blue Green",
          "slug": "blue-green",
          "color": "#4d8fb2"
        },
        {
          "name": "Steel Blue",
          "slug": "steel-blue",
          "color": "#4780a5"
        },
        {
          "name": "Hookers Green",
          "slug": "hookers-green",
          "color": "#487c73"
        },
        {
          "name": "Snow",
          "slug": "snow",
          "color": "#fef6f8"
        },
        {
          "name": "Piggy Pink",
          "slug": "piggy-pink",
          "color": "#fce1e6"
        },
        {
          "name": "Light Pink",
          "slug": "light-pink",
          "color": "#fba7ae"
        },
        {
          "name": "Pink Sherbet",
          "slug": "pink-sherbet",
          "color": "#f5889d"
        },
        {
          "name": "Congo Pink",
          "slug": "congo-pink",
          "color": "#fa867b"
        },
        {
          "name": "Blush",
          "slug": "blush",
          "color": "#dd5677"
        },
        {
          "name": "Redwood",
          "slug": "redwood",
          "color": "#b0625a"
        },
        {
          "name": "Copper Penny",
          "slug": "copper-penny",
          "color": "#ad6d72"
        },
        {
          "name": "Spanish Gray",
          "slug": "spanish-gray",
          "color": "#9b9b9b"
        },
        {
          "name": "Dark",
          "slug": "dark",
          "color": "#000000"
        },
        {
          "name": "Transparent",
          "slug": "transparent",
          "color": "#00000000"
        }
      ]
    },
    "spacing": {
      "units": [
        "%",
        "px",
        "em",
        "rem",
        "vh",
        "vw"
      ]
    },
    "typography": {
      "dropCap": false,
      "fontFamilies": [
        {
          "fontFamily": "-apple-system,BlinkMacSystemFont,\"Segoe UI\",Roboto,Oxygen-Sans,Ubuntu,Cantarell,\"Helvetica Neue\",sans-serif",
          "name": "System Font",
          "slug": "system-font"
        },
        {
          "fontFamily": "\"Grand Royal\", sans-serif",
          "name": "Grand Royal",
          "slug": "grandroyal",
          "fontFace": [
            {
              "fontFamily": "Grand Royal",
              "fontWeight": "normal",
              "fontStyle": "normal",
              "fontStretch": "normal",
              "src": [
                "file:./assets/fonts/grandroyal-regular.woff",
                "file:./assets/fonts/grandroyal-regular.woff2"
              ]
            }
          ]
        },
        {
          "fontFamily": "\"Coughy Machine\", sans-serif",
          "name": "Coughy Machine",
          "slug": "coughymachine",
          "fontFace": [
            {
              "fontFamily": "Coughy Machine",
              "fontWeight": "normal",
              "fontStyle": "normal",
              "fontStretch": "normal",
              "src": [
                "file:./assets/fonts/coughymachine-regular.woff",
                "file:./assets/fonts/coughymachine-regular.woff2"
              ]
            }
          ]
        },
        {
          "fontFamily": "\"Optima\", sans-serif",
          "name": "Optima",
          "slug": "optima",
          "fontFace": [
            {
              "fontFamily": "Optima",
              "fontWeight": "normal",
              "fontStyle": "normal",
              "fontStretch": "normal",
              "src": [
                "file:./assets/fonts/optima-regular-webfont.woff",
                "file:./assets/fonts/optima-regular-webfont.woff2"
              ]
            },
            {
              "fontFamily": "Optima",
              "fontWeight": "normal",
              "fontStyle": "italic",
              "fontStretch": "normal",
              "src": [
                "file:./assets/fonts/optima-italic-webfont.woff",
                "file:./assets/fonts/optima-italic-webfont.woff2"
              ]
            },
            {
              "fontFamily": "Optima",
              "fontWeight": "bold",
              "fontStyle": "normal",
              "fontStretch": "normal",
              "src": [
                "file:./assets/fonts/optima-bold-webfont.woff",
                "file:./assets/fonts/optima-bold-webfont.woff2"
              ]
            },
            {
              "fontFamily": "Optima",
              "fontWeight": "bold",
              "fontStyle": "italic",
              "fontStretch": "normal",
              "src": [
                "file:./assets/fonts/optima-bolditalic-webfont.woff",
                "file:./assets/fonts/optima-bolditalic-webfont.woff2"
              ]
            }
          ]
        }
      ],
      "fontSizes": [
        {
          "size": "0.75em",
          "slug": "small",
          "name": "Small"
        },
        {
          "size": "1em",
          "slug": "normal",
          "name": "Normal"
        },
        {
          "size": "1.25em",
          "slug": "medium",
          "name": "Medium"
        },
        {
          "size": "2em",
          "slug": "big",
          "name": "Big"
        },
        {
          "size": "clamp(3em, 3.5vw, 4.375em)",
          "slug": "huge",
          "name": "Huge"
        }
      ]
    },
    "layout": {
      "contentSize": "720px",
      "wideSize": "1140px"
    }
  },
  "styles": {
    "blocks": {
      "core/columns": {
        "spacing": {
          "margin": {
            "bottom": "0"
          }
        }
      }
    }
  }
}